实验实习资料/电子线路实验工程文件/DClab3/multiplexer/simulation/qsim/multiplexer.msim.vcd
$comment
	File created using the following command:
		vcd file multiplexer.msim.vcd -direction
$end
$date
	Sat Jan 11 20:41:46 2014
$end
$version
	ModelSim Version 10.1d
$end
$timescale
	1ps
$end
$scope module multiplexer_vlg_vec_tst $end
$var reg 1 ! A0 $end
$var reg 1 " A1 $end
$var reg 1 # D0 $end
$var reg 1 $ D1 $end
$var reg 1 % D2 $end
$var reg 1 & D3 $end
$var reg 1 ' Enable $end
$var wire 1 ( F $end
$var wire 1 ) sampler $end
$scope module i1 $end
$var wire 1 * gnd $end
$var wire 1 + vcc $end
$var wire 1 , unknown $end
$var tri1 1 - devclrn $end
$var tri1 1 . devpor $end
$var tri1 1 / devoe $end
$var wire 1 0 F~output_o $end
$var wire 1 1 Enable~input_o $end
$var wire 1 2 D3~input_o $end
$var wire 1 3 A1~input_o $end
$var wire 1 4 D2~input_o $end
$var wire 1 5 D0~input_o $end
$var wire 1 6 D1~input_o $end
$var wire 1 7 A0~input_o $end
$var wire 1 8 inst11~0_combout $end
$var wire 1 9 inst11~1_combout $end
$var wire 1 : inst11~2_combout $end
$upscope $end
$upscope $end
$enddefinitions $end
#0
$dumpvars
0!
0"
0#
0$
0%
0&
0'
0(
x)
0*
1+
x,
1-
1.
1/
00
01
02
03
04
05
06
07
08
09
0:
$end
#10000
1&
12
0)
#20000
1%
0&
14
02
1)
#30000
1$
1&
16
12
0)
#40000
0%
0&
04
02
1)
#50000
1#
1&
15
12
0)
18
19
1:
10
1(
#60000
0$
1%
0&
06
14
02
1)
#70000
1&
12
0)
#80000
0%
0&
04
02
1)
#90000
1$
1&
16
12
0)
#100000
1!
0#
1%
0&
17
05
14
02
1)
#110000
1&
12
0)
#120000
0$
0%
0&
06
04
02
1)
08
09
0:
00
0(
#130000
1&
12
0)
#140000
1%
0&
14
02
1)
#150000
1#
1$
1&
15
16
12
0)
18
19
1:
10
1(
#160000
0%
0&
04
02
1)
#170000
1&
12
0)
#180000
0$
1%
0&
06
14
02
1)
08
09
0:
00
0(
#190000
1&
12
0)
#200000
1"
0!
0#
0%
0&
13
07
05
04
02
1)
#210000
1$
1&
16
12
0)
#220000
1%
0&
14
02
1)
19
1:
10
1(
#230000
1&
12
0)
#240000
0$
0%
0&
06
04
02
1)
09
0:
00
0(
#250000
1#
1&
15
12
0)
#260000
1%
0&
14
02
1)
19
1:
10
1(
#270000
1$
1&
16
12
0)
#280000
0%
0&
04
02
1)
09
0:
00
0(
#290000
1&
12
0)
#300000
1!
0#
0$
1%
0&
17
05
06
14
02
1)
18
19
09
1:
10
1(
0:
00
0(
#310000
1&
12
0)
19
1:
10
1(
#320000
0%
0&
04
02
1)
09
0:
00
0(
#330000
1$
1&
16
12
0)
19
1:
10
1(
#340000
1%
0&
14
02
1)
09
0:
00
0(
#350000
1#
1&
15
12
0)
19
1:
10
1(
#360000
0$
0%
0&
06
04
02
1)
09
0:
00
0(
#370000
1&
12
0)
19
1:
10
1(
#380000
1%
0&
14
02
1)
09
0:
00
0(
#390000
1$
1&
16
12
0)
19
1:
10
1(
#400000
0"
0!
0#
0%
0&
03
07
05
04
02
1)
08
09
0:
00
0(
#410000
1&
12
0)
#420000
0$
1%
0&
06
14
02
1)
#430000
1&
12
0)
#440000
0%
0&
04
02
1)
#450000
1#
1$
1&
15
16
12
0)
18
19
1:
10
1(
#460000
1%
0&
14
02
1)
#470000
1&
12
0)
#480000
0$
0%
0&
06
04
02
1)
#490000
1&
12
0)
#500000
1!
0#
1%
0&
17
05
14
02
1)
08
09
0:
00
0(
#510000
1$
1&
16
12
0)
18
19
1:
10
1(
#520000
0%
0&
04
02
1)
#530000
1&
12
0)
#540000
0$
1%
0&
06
14
02
1)
08
09
0:
00
0(
#550000
1#
1&
15
12
0)
#560000
0%
0&
04
02
1)
#570000
1$
1&
16
12
0)
18
19
1:
10
1(
#580000
1%
0&
14
02
1)
#590000
1&
12
0)
#600000
1"
0!
0#
0$
0%
0&
13
07
05
06
04
02
1)
09
08
0:
00
0(
#605000
1'
11
0)
#610000
1&
12
1)
#620000
1%
0&
14
02
0)
19
#630000
1$
1&
16
12
1)
#640000
0%
0&
04
02
0)
09
#650000
1#
1&
15
12
1)
#660000
0$
1%
0&
06
14
02
0)
19
#670000
1&
12
1)
#680000
0%
0&
04
02
0)
09
#690000
1$
1&
16
12
1)
#700000
1!
0#
1%
0&
17
05
14
02
0)
18
19
09
#710000
1&
12
1)
19
#720000
0$
0%
0&
06
04
02
0)
09
#730000
1&
12
1)
19
#740000
1%
0&
14
02
0)
09
#750000
1#
1$
1&
15
16
12
1)
19
#760000
0%
0&
04
02
0)
09
#770000
1&
12
1)
19
#780000
0$
1%
0&
06
14
02
0)
09
#790000
1&
12
1)
19
#800000
0"
0!
0#
0%
0&
03
07
05
04
02
0)
08
09
#810000
1$
1&
16
12
1)
#820000
1%
0&
14
02
0)
#830000
1&
12
1)
#840000
0$
0%
0&
06
04
02
0)
#850000
1#
1&
15
12
1)
18
19
#860000
1%
0&
14
02
0)
#870000
1$
1&
16
12
1)
#880000
0%
0&
04
02
0)
#890000
1&
12
1)
#900000
1!
0#
0$
1%
0&
17
05
06
14
02
0)
08
09
#910000
1&
12
1)
#920000
0%
0&
04
02
0)
#930000
1$
1&
16
12
1)
18
19
#940000
1%
0&
14
02
0)
#950000
1#
1&
15
12
1)
#960000
0$
0%
0&
06
04
02
0)
08
09
#970000
1&
12
1)
#980000
1%
0&
14
02
0)
#990000
1$
1&
16
12
1)
18
19
