实验实习资料/电子线路实验工程文件/DClab2/One/simulation/qsim/One.msim.vcd
$comment
	File created using the following command:
		vcd file One.msim.vcd -direction
$end
$date
	Sat Jan 04 21:29:43 2014
$end
$version
	ModelSim Version 10.1d
$end
$timescale
	1ps
$end
$scope module One_vlg_vec_tst $end
$var reg 1 ! A $end
$var reg 1 " B $end
$var reg 1 # C_i $end
$var wire 1 $ Ci1 $end
$var wire 1 % S $end
$var wire 1 & sampler $end
$scope module i1 $end
$var wire 1 ' gnd $end
$var wire 1 ( vcc $end
$var wire 1 ) unknown $end
$var tri1 1 * devclrn $end
$var tri1 1 + devpor $end
$var tri1 1 , devoe $end
$var wire 1 - S~output_o $end
$var wire 1 . Ci1~output_o $end
$var wire 1 / A~input_o $end
$var wire 1 0 C_i~input_o $end
$var wire 1 1 B~input_o $end
$var wire 1 2 inst9~0_combout $end
$var wire 1 3 inst16~0_combout $end
$upscope $end
$upscope $end
$enddefinitions $end
#0
$dumpvars
0!
0"
0#
0$
0%
x&
0'
1(
x)
1*
1+
1,
0-
0.
0/
00
01
02
03
$end
#100000
1#
10
0&
12
1-
1%
#200000
1"
0#
11
00
1&
#300000
1#
10
0&
13
02
1.
0-
1$
0%
#400000
1!
0"
0#
1/
01
00
1&
03
12
0.
1-
0$
1%
#500000
1#
10
0&
13
02
1.
0-
1$
0%
#600000
1"
0#
11
00
1&
#700000
1#
10
0&
12
1-
1%
#800000
0!
0"
0#
0/
01
00
1&
03
02
0.
0-
0$
0%
#900000
1#
10
0&
12
1-
1%
