实验实习资料/电子线路实验工程文件/DClab3/distributor/simulation/qsim/distributor.msim.vcd
$comment
	File created using the following command:
		vcd file distributor.msim.vcd -direction
$end
$date
	Sat Jan 11 20:39:16 2014
$end
$version
	ModelSim Version 10.1d
$end
$timescale
	1ps
$end
$scope module distributor_vlg_vec_tst $end
$var reg 1 ! A0 $end
$var reg 1 " A1 $end
$var reg 1 # Din $end
$var reg 1 $ Enable $end
$var wire 1 % Y0 $end
$var wire 1 & Y1 $end
$var wire 1 ' Y2 $end
$var wire 1 ( Y3 $end
$var wire 1 ) sampler $end
$scope module i1 $end
$var wire 1 * gnd $end
$var wire 1 + vcc $end
$var wire 1 , unknown $end
$var tri1 1 - devclrn $end
$var tri1 1 . devpor $end
$var tri1 1 / devoe $end
$var wire 1 0 Y0~output_o $end
$var wire 1 1 Y1~output_o $end
$var wire 1 2 Y2~output_o $end
$var wire 1 3 Y3~output_o $end
$var wire 1 4 A1~input_o $end
$var wire 1 5 Din~input_o $end
$var wire 1 6 A0~input_o $end
$var wire 1 7 Enable~input_o $end
$var wire 1 8 inst7~combout $end
$var wire 1 9 inst8~combout $end
$var wire 1 : inst9~combout $end
$var wire 1 ; inst10~combout $end
$upscope $end
$upscope $end
$enddefinitions $end
#0
$dumpvars
0!
0"
0#
0$
0%
0&
0'
0(
x)
0*
1+
x,
1-
1.
1/
00
01
02
03
04
05
06
07
08
09
0:
0;
$end
#10000
1#
15
0)
18
10
1%
#20000
0#
05
1)
08
00
0%
#30000
1#
15
0)
18
10
1%
#40000
0#
05
1)
08
00
0%
#50000
1#
15
0)
18
10
1%
#60000
0#
05
1)
08
00
0%
#70000
1#
15
0)
18
10
1%
#80000
0#
05
1)
08
00
0%
#90000
1#
15
0)
18
10
1%
#100000
1!
0#
16
05
1)
08
00
0%
#110000
1#
15
0)
19
11
1&
#120000
0#
05
1)
09
01
0&
#130000
1#
15
0)
19
11
1&
#140000
0#
05
1)
09
01
0&
#150000
1#
15
0)
19
11
1&
#160000
0#
05
1)
09
01
0&
#170000
1#
15
0)
19
11
1&
#180000
0#
05
1)
09
01
0&
#190000
1#
15
0)
19
11
1&
#200000
1"
0!
0#
14
06
05
1)
09
01
0&
#210000
1#
15
0)
1:
12
1'
#220000
0#
05
1)
0:
02
0'
#230000
1#
15
0)
1:
12
1'
#240000
0#
05
1)
0:
02
0'
#250000
1#
15
0)
1:
12
1'
#260000
0#
05
1)
0:
02
0'
#270000
1#
15
0)
1:
12
1'
#280000
0#
05
1)
0:
02
0'
#290000
1#
15
0)
1:
12
1'
#300000
1!
0#
16
05
1)
0:
02
0'
#310000
1#
15
0)
1;
13
1(
#320000
0#
05
1)
0;
03
0(
#330000
1#
15
0)
1;
13
1(
#340000
0#
05
1)
0;
03
0(
#350000
1#
15
0)
1;
13
1(
#360000
0#
05
1)
0;
03
0(
#370000
1#
15
0)
1;
13
1(
#380000
0#
05
1)
0;
03
0(
#390000
1#
15
0)
1;
13
1(
#400000
0"
0!
0#
04
06
05
1)
0;
03
0(
#410000
1#
15
0)
18
10
1%
#420000
0#
05
1)
08
00
0%
#430000
1#
15
0)
18
10
1%
#440000
0#
05
1)
08
00
0%
#450000
1#
15
0)
18
10
1%
#460000
0#
05
1)
08
00
0%
#470000
1#
15
0)
18
10
1%
#480000
0#
05
1)
08
00
0%
#490000
1#
15
0)
18
10
1%
#500000
1!
0#
16
05
1)
08
00
0%
#510000
1#
15
0)
19
11
1&
#520000
0#
05
1)
09
01
0&
#530000
1#
15
0)
19
11
1&
#540000
0#
05
1)
09
01
0&
#550000
1#
15
0)
19
11
1&
#560000
0#
05
1)
09
01
0&
#570000
1#
15
0)
19
11
1&
#580000
0#
05
1)
09
01
0&
#590000
1#
15
0)
19
11
1&
#600000
1$
1"
0!
0#
17
14
06
05
1)
1;
1:
18
13
12
10
1(
1'
1%
#610000
1#
15
0)
#620000
0#
05
1)
#630000
1#
15
0)
#640000
0#
05
1)
#650000
1#
15
0)
#660000
0#
05
1)
#670000
1#
15
0)
#680000
0#
05
1)
#690000
1#
15
0)
#700000
1!
0#
16
05
1)
#710000
1#
15
0)
#720000
0#
05
1)
#730000
1#
15
0)
#740000
0#
05
1)
#750000
1#
15
0)
#760000
0#
05
1)
#770000
1#
15
0)
#780000
0#
05
1)
#790000
1#
15
0)
#800000
0"
0!
0#
04
06
05
1)
#810000
1#
15
0)
#820000
0#
05
1)
#830000
1#
15
0)
#840000
0#
05
1)
#850000
1#
15
0)
#860000
0#
05
1)
#870000
1#
15
0)
#880000
0#
05
1)
#890000
1#
15
0)
#900000
1!
0#
16
05
1)
#910000
1#
15
0)
#920000
0#
05
1)
#930000
1#
15
0)
#940000
0#
05
1)
#950000
1#
15
0)
#960000
0#
05
1)
#970000
1#
15
0)
#980000
0#
05
1)
#990000
1#
15
0)
