实验实习资料/电子线路实验工程文件/DClab3/fourBitCoparer/simulation/qsim/fourBitCoparer.msim.vcd
$comment
	File created using the following command:
		vcd file fourBitCoparer.msim.vcd -direction
$end
$date
	Sat Jan 11 20:54:23 2014
$end
$version
	ModelSim Version 10.1d
$end
$timescale
	1ps
$end
$scope module fourBitCoparer_vlg_vec_tst $end
$var reg 1 ! A0 $end
$var reg 1 " A1 $end
$var reg 1 # A2 $end
$var reg 1 $ A3 $end
$var reg 1 % B0 $end
$var reg 1 & B1 $end
$var reg 1 ' B2 $end
$var reg 1 ( B3 $end
$var wire 1 ) E $end
$var wire 1 * E0 $end
$var wire 1 + E1 $end
$var wire 1 , E2 $end
$var wire 1 - E3 $end
$var wire 1 . L $end
$var wire 1 / L0 $end
$var wire 1 0 L1 $end
$var wire 1 1 L2 $end
$var wire 1 2 L3 $end
$var wire 1 3 S $end
$var wire 1 4 S0 $end
$var wire 1 5 S1 $end
$var wire 1 6 S2 $end
$var wire 1 7 S3 $end
$var wire 1 8 sampler $end
$scope module i1 $end
$var wire 1 9 gnd $end
$var wire 1 : vcc $end
$var wire 1 ; unknown $end
$var tri1 1 < devclrn $end
$var tri1 1 = devpor $end
$var tri1 1 > devoe $end
$var wire 1 ? L0~output_o $end
$var wire 1 @ S0~output_o $end
$var wire 1 A E0~output_o $end
$var wire 1 B L1~output_o $end
$var wire 1 C S1~output_o $end
$var wire 1 D E1~output_o $end
$var wire 1 E L2~output_o $end
$var wire 1 F S2~output_o $end
$var wire 1 G E2~output_o $end
$var wire 1 H L3~output_o $end
$var wire 1 I S3~output_o $end
$var wire 1 J E3~output_o $end
$var wire 1 K L~output_o $end
$var wire 1 L E~output_o $end
$var wire 1 M S~output_o $end
$var wire 1 N A0~input_o $end
$var wire 1 O B0~input_o $end
$var wire 1 P inst1~combout $end
$var wire 1 Q inst2~combout $end
$var wire 1 R inst6~0_combout $end
$var wire 1 S B1~input_o $end
$var wire 1 T A1~input_o $end
$var wire 1 U inst3~combout $end
$var wire 1 V inst4~combout $end
$var wire 1 W inst8~0_combout $end
$var wire 1 X B2~input_o $end
$var wire 1 Y A2~input_o $end
$var wire 1 Z inst10~combout $end
$var wire 1 [ inst11~combout $end
$var wire 1 \ inst14~0_combout $end
$var wire 1 ] B3~input_o $end
$var wire 1 ^ A3~input_o $end
$var wire 1 _ inst16~combout $end
$var wire 1 ` inst17~combout $end
$var wire 1 a inst20~0_combout $end
$var wire 1 b inst21~0_combout $end
$var wire 1 c inst22~0_combout $end
$var wire 1 d inst22~1_combout $end
$var wire 1 e inst21~combout $end
$var wire 1 f inst23~0_combout $end
$var wire 1 g inst23~1_combout $end
$upscope $end
$upscope $end
$enddefinitions $end
#0
$dumpvars
0!
0"
0#
0$
0%
0&
0'
0(
1)
1*
1+
1,
1-
0.
0/
00
01
02
03
04
05
06
07
x8
09
1:
x;
1<
1=
1>
0?
0@
1A
0B
0C
1D
0E
0F
1G
0H
0I
1J
0K
1L
0M
0N
0O
0P
0Q
0R
0S
0T
0U
0V
0W
0X
0Y
0Z
0[
0\
0]
0^
0_
0`
0a
1b
0c
0d
1e
0f
0g
$end
#10000
1%
1O
08
1R
1Q
1f
0A
1@
0*
14
0e
0L
0)
1g
1M
13
#20000
1&
0%
1S
0O
18
1W
0R
1V
0Q
0D
1A
1C
0@
0+
1*
15
04
#30000
1%
1O
08
1R
1Q
0A
1@
0*
14
#40000
1'
0&
0%
1X
0S
0O
18
0b
1\
0W
0R
1[
0V
0Q
0f
0G
1D
1A
1F
0C
0@
0,
1+
1*
16
05
04
#50000
1%
1O
08
1R
1Q
0A
1@
0*
14
#60000
1&
0%
1S
0O
18
1W
0R
1V
0Q
0D
1A
1C
0@
0+
1*
15
04
#70000
1%
1O
08
1R
1Q
0A
1@
0*
14
#80000
1(
0'
0&
0%
1]
0X
0S
0O
18
1a
0\
0W
0R
1`
0[
0V
0Q
0J
1G
1D
1A
1I
0F
0C
0@
0-
1,
1+
1*
17
06
05
04
#90000
1%
1O
08
1R
1Q
0A
1@
0*
14
#100000
1&
0%
1S
0O
18
1W
0R
1V
0Q
0D
1A
1C
0@
0+
1*
15
04
#110000
1%
1O
08
1R
1Q
0A
1@
0*
14
#120000
1'
0&
0%
1X
0S
0O
18
1\
0W
0R
1[
0V
0Q
0G
1D
1A
1F
0C
0@
0,
1+
1*
16
05
04
#130000
1%
1O
08
1R
1Q
0A
1@
0*
14
#140000
1&
0%
1S
0O
18
1W
0R
1V
0Q
0D
1A
1C
0@
0+
1*
15
04
#150000
1%
1O
08
1R
1Q
0A
1@
0*
14
#160000
1!
0(
0'
0&
0%
1N
0]
0X
0S
0O
18
1b
0a
0\
0W
0Q
1P
0`
0[
0V
1c
1J
1G
1D
0@
1?
0I
0F
0C
1-
1,
1+
04
1/
07
06
05
0g
0M
03
1d
1K
1.
#170000
1%
1O
08
0R
0P
0c
1A
0?
1*
0/
1e
1L
1)
0d
0K
0.
#180000
1&
0%
1S
0O
18
1f
1W
1R
1V
1P
0D
0A
1C
1?
0+
0*
15
1/
1g
0e
1M
0L
13
0)
#190000
1%
1O
08
0R
0P
1A
0?
1*
0/
#200000
1'
0&
0%
1X
0S
0O
18
0b
1\
0f
0W
1R
1[
0V
1P
0G
1D
0A
1F
0C
1?
0,
1+
0*
16
05
1/
#210000
1%
1O
08
0R
0P
1A
0?
1*
0/
#220000
1&
0%
1S
0O
18
1W
1R
1V
1P
0D
0A
1C
1?
0+
0*
15
1/
#230000
1%
1O
08
0R
0P
1A
0?
1*
0/
#240000
1(
0'
0&
0%
1]
0X
0S
0O
18
1a
0\
0W
1R
1`
0[
0V
1P
0J
1G
1D
0A
1I
0F
0C
1?
0-
1,
1+
0*
17
06
05
1/
#250000
1%
1O
08
0R
0P
1A
0?
1*
0/
#260000
1&
0%
1S
0O
18
1W
1R
1V
1P
0D
0A
1C
1?
0+
0*
15
1/
#270000
1%
1O
08
0R
0P
1A
0?
1*
0/
#280000
1'
0&
0%
1X
0S
0O
18
1\
0W
1R
1[
0V
1P
0G
1D
0A
1F
0C
1?
0,
1+
0*
16
05
1/
#290000
1%
1O
08
0R
0P
1A
0?
1*
0/
#300000
1&
0%
1S
0O
18
1W
1R
1V
1P
0D
0A
1C
1?
0+
0*
15
1/
#310000
1%
1O
08
0R
0P
1A
0?
1*
0/
#320000
1"
0!
0(
0'
0&
0%
1T
0N
0]
0X
0S
0O
18
1b
0a
0\
0V
1U
0`
0[
1c
1J
1G
0C
1B
0I
0F
1-
1,
05
10
07
06
0g
0M
03
1d
1K
1.
#330000
1%
1O
08
1R
1Q
0A
1@
0*
14
#340000
1&
0%
1S
0O
18
1f
0c
0W
0R
0U
0Q
0f
1D
1A
0B
0@
1+
1*
00
04
1g
0d
1e
1M
0K
1L
13
0.
1)
0g
0M
03
#350000
1%
1O
08
1R
1Q
1f
0A
1@
0*
14
0e
0L
0)
1g
1M
13
#360000
1'
0&
0%
1X
0S
0O
18
0b
1\
0f
1c
1W
0R
1[
1U
0Q
0c
0G
0D
1A
1F
1B
0@
0,
0+
1*
16
10
04
1d
1K
1.
0d
0K
0.
#370000
1%
1O
08
1R
1Q
0A
1@
0*
14
#380000
1&
0%
1S
0O
18
0W
0R
0U
0Q
1D
1A
0B
0@
1+
1*
00
04
#390000
1%
1O
08
1R
1Q
0A
1@
0*
14
#400000
1(
0'
0&
0%
1]
0X
0S
0O
18
1a
0\
1W
0R
1`
0[
1U
0Q
0J
1G
0D
1A
1I
0F
1B
0@
0-
1,
0+
1*
17
06
10
04
#410000
1%
1O
08
1R
1Q
0A
1@
0*
14
#420000
1&
0%
1S
0O
18
0W
0R
0U
0Q
1D
1A
0B
0@
1+
1*
00
04
#430000
1%
1O
08
1R
1Q
0A
1@
0*
14
#440000
1'
0&
0%
1X
0S
0O
18
1\
1W
0R
1[
1U
0Q
0G
0D
1A
1F
1B
0@
0,
0+
1*
16
10
04
#450000
1%
1O
08
1R
1Q
0A
1@
0*
14
#460000
1&
0%
1S
0O
18
0W
0R
0U
0Q
1D
1A
0B
0@
1+
1*
00
04
#470000
1%
1O
08
1R
1Q
0A
1@
0*
14
#480000
1!
0(
0'
0&
0%
1N
0]
0X
0S
0O
18
1b
0a
0\
1W
0Q
1P
0`
0[
1U
1c
1J
1G
0D
0@
1?
0I
0F
1B
1-
1,
0+
04
1/
07
06
10
0g
0M
03
1d
1K
1.
#490000
1%
1O
08
0R
0P
1A
0?
1*
0/
#500000
1&
0%
1S
0O
18
0c
0W
1R
0U
1P
1c
1D
0A
0B
1?
1+
0*
00
1/
0d
0K
0.
1d
1K
1.
#510000
1%
1O
08
0R
0P
0c
1A
0?
1*
0/
1e
1L
1)
0d
0K
0.
#520000
1'
0&
0%
1X
0S
0O
18
0b
1\
1c
1W
1R
1[
1U
1P
0c
0G
0D
0A
1F
1B
1?
0,
0+
0*
16
10
1/
0e
1d
1g
0L
1K
1M
0)
1.
13
0d
0K
0.
#530000
1%
1O
08
0R
0P
1A
0?
1*
0/
#540000
1&
0%
1S
0O
18
0W
1R
0U
1P
1D
0A
0B
1?
1+
0*
00
1/
#550000
1%
1O
08
0R
0P
1A
0?
1*
0/
#560000
1(
0'
0&
0%
1]
0X
0S
0O
18
1a
0\
1W
1R
1`
0[
1U
1P
0J
1G
0D
0A
1I
0F
1B
1?
0-
1,
0+
0*
17
06
10
1/
#570000
1%
1O
08
0R
0P
1A
0?
1*
0/
#580000
1&
0%
1S
0O
18
0W
1R
0U
1P
1D
0A
0B
1?
1+
0*
00
1/
#590000
1%
1O
08
0R
0P
1A
0?
1*
0/
#600000
1'
0&
0%
1X
0S
0O
18
1\
1W
1R
1[
1U
1P
0G
0D
0A
1F
1B
1?
0,
0+
0*
16
10
1/
#610000
1%
1O
08
0R
0P
1A
0?
1*
0/
#620000
1&
0%
1S
0O
18
0W
1R
0U
1P
1D
0A
0B
1?
1+
0*
00
1/
#630000
1%
1O
08
0R
0P
1A
0?
1*
0/
#640000
1#
0"
0!
0(
0'
0&
0%
1Y
0T
0N
0]
0X
0S
0O
18
0a
0[
1Z
0`
1J
0F
1E
0I
1-
06
11
07
0g
1d
0M
1K
03
1.
#650000
1%
1O
08
1R
1Q
0A
1@
0*
14
#660000
1&
0%
1S
0O
18
1W
0R
1V
0Q
0D
1A
1C
0@
0+
1*
15
04
#670000
1%
1O
08
1R
1Q
0A
1@
0*
14
#680000
1'
0&
0%
1X
0S
0O
18
1b
0\
0W
0R
0Z
0V
0Q
1G
1D
1A
0E
0C
0@
1,
1+
1*
01
05
04
1e
0d
1L
0K
1)
0.
#690000
1%
1O
08
1R
1Q
1f
0A
1@
0*
14
0e
0L
0)
1g
1M
13
#700000
1&
0%
1S
0O
18
1W
0R
1V
0Q
0D
1A
1C
0@
0+
1*
15
04
#710000
1%
1O
08
1R
1Q
0A
1@
0*
14
#720000
1(
0'
0&
0%
1]
0X
0S
0O
18
0b
1a
1\
0W
0R
1`
1Z
0V
0Q
0f
0J
0G
1D
1A
1I
1E
0C
0@
0-
0,
1+
1*
17
11
05
04
#730000
1%
1O
08
1R
1Q
0A
1@
0*
14
#740000
1&
0%
1S
0O
18
1W
0R
1V
0Q
0D
1A
1C
0@
0+
1*
15
04
#750000
1%
1O
08
1R
1Q
0A
1@
0*
14
#760000
1'
0&
0%
1X
0S
0O
18
0\
0W
0R
0Z
0V
0Q
1G
1D
1A
0E
0C
0@
1,
1+
1*
01
05
04
#770000
1%
1O
08
1R
1Q
0A
1@
0*
14
#780000
1&
0%
1S
0O
18
1W
0R
1V
0Q
0D
1A
1C
0@
0+
1*
15
04
#790000
1%
1O
08
1R
1Q
0A
1@
0*
14
#800000
1!
0(
0'
0&
0%
1N
0]
0X
0S
0O
18
0a
1\
0W
0Q
1P
0g
0`
1Z
0V
1J
0G
1D
0@
1?
0M
0I
1E
0C
1-
0,
1+
04
1/
03
07
11
05
1d
1K
1.
#810000
1%
1O
08
0R
0P
1A
0?
1*
0/
#820000
1&
0%
1S
0O
18
1W
1R
1V
1P
0D
0A
1C
1?
0+
0*
15
1/
#830000
1%
1O
08
0R
0P
1A
0?
1*
0/
#840000
1'
0&
0%
1X
0S
0O
18
1b
0\
0W
1R
0Z
0V
1P
1c
1G
1D
0A
0E
0C
1?
1,
1+
0*
01
05
1/
0d
0K
0.
1d
1K
1.
#850000
1%
1O
08
0R
0P
0c
1A
0?
1*
0/
1e
1L
1)
0d
0K
0.
#860000
1&
0%
1S
0O
18
1f
1W
1R
1V
1P
0D
0A
1C
1?
0+
0*
15
1/
1g
0e
1M
0L
13
0)
#870000
1%
1O
08
0R
0P
1A
0?
1*
0/
#880000
1(
0'
0&
0%
1]
0X
0S
0O
18
0b
1a
1\
0f
0W
1R
1`
1Z
0V
1P
0J
0G
1D
0A
1I
1E
0C
1?
0-
0,
1+
0*
17
11
05
1/
#890000
1%
1O
08
0R
0P
1A
0?
1*
0/
#900000
1&
0%
1S
0O
18
1W
1R
1V
1P
0D
0A
1C
1?
0+
0*
15
1/
#910000
1%
1O
08
0R
0P
1A
0?
1*
0/
#920000
1'
0&
0%
1X
0S
0O
18
0\
0W
1R
0Z
0V
1P
1G
1D
0A
0E
0C
1?
1,
1+
0*
01
05
1/
#930000
1%
1O
08
0R
0P
1A
0?
1*
0/
#940000
1&
0%
1S
0O
18
1W
1R
1V
1P
0D
0A
1C
1?
0+
0*
15
1/
#950000
1%
1O
08
0R
0P
1A
0?
1*
0/
#960000
1"
0!
0(
0'
0&
0%
1T
0N
0]
0X
0S
0O
18
0a
1\
0V
1U
0g
0`
1Z
1J
0G
0C
1B
0M
0I
1E
1-
0,
05
10
03
07
11
1d
1K
1.
#970000
1%
1O
08
1R
1Q
0A
1@
0*
14
#980000
1&
0%
1S
0O
18
0W
0R
0U
0Q
1D
1A
0B
0@
1+
1*
00
04
#990000
1%
1O
08
1R
1Q
0A
1@
0*
14
