实验实习资料/电子线路实验工程文件/DClab7/CLOCK/simulation/qsim/clock.msim.vcd
$comment
	File created using the following command:
		vcd file clock.msim.vcd -direction
$end
$date
	Sat Apr 13 14:08:34 2024
$end
$version
	ModelSim Version 10.1d
$end
$timescale
	1ps
$end
$scope module clock_vlg_vec_tst $end
$var reg 1 ! pin_name1 $end
$var reg 1 " pin_name9 $end
$var wire 1 # pin_name2 $end
$var wire 1 $ pin_name3 $end
$var wire 1 % pin_name4 $end
$var wire 1 & pin_name5 $end
$var wire 1 ' pin_name6 $end
$var wire 1 ( pin_name7 $end
$var wire 1 ) pin_name8 $end
$var wire 1 * pin_name10 $end
$var wire 1 + pin_name11 $end
$var wire 1 , pin_name12 $end
$var wire 1 - pin_name13 $end
$var wire 1 . pin_name14 $end
$var wire 1 / pin_name15 $end
$var wire 1 0 pin_name16 $end
$var wire 1 1 pin_name17 $end
$var wire 1 2 sampler $end
$scope module i1 $end
$var wire 1 3 gnd $end
$var wire 1 4 vcc $end
$var wire 1 5 unknown $end
$var tri1 1 6 devclrn $end
$var tri1 1 7 devpor $end
$var tri1 1 8 devoe $end
$var wire 1 9 pin_name2~output_o $end
$var wire 1 : pin_name3~output_o $end
$var wire 1 ; pin_name4~output_o $end
$var wire 1 < pin_name5~output_o $end
$var wire 1 = pin_name6~output_o $end
$var wire 1 > pin_name7~output_o $end
$var wire 1 ? pin_name8~output_o $end
$var wire 1 @ pin_name11~output_o $end
$var wire 1 A pin_name12~output_o $end
$var wire 1 B pin_name13~output_o $end
$var wire 1 C pin_name14~output_o $end
$var wire 1 D pin_name15~output_o $end
$var wire 1 E pin_name16~output_o $end
$var wire 1 F pin_name10~output_o $end
$var wire 1 G pin_name17~output_o $end
$var wire 1 H pin_name9~input_o $end
$var wire 1 I inst34|sub|9~0_combout $end
$var wire 1 J inst34|sub|99~0_combout $end
$var wire 1 K inst34|sub|99~q $end
$var wire 1 L inst35~combout $end
$var wire 1 M inst34|sub|9~q $end
$var wire 1 N inst34|sub|87~0_combout $end
$var wire 1 O inst34|sub|87~q $end
$var wire 1 P inst38|15~0_combout $end
$var wire 1 Q inst38|15~1_combout $end
$var wire 1 R inst38|15~2_combout $end
$var wire 1 S inst38|15~3_combout $end
$var wire 1 T inst38|15~4_combout $end
$var wire 1 U inst38|15~5_combout $end
$var wire 1 V pin_name1~input_o $end
$var wire 1 W inst|6~0_combout $end
$var wire 1 X inst|6~feeder_combout $end
$var wire 1 Y inst|6~q $end
$var wire 1 Z inst|7~0_combout $end
$var wire 1 [ inst|7~q $end
$var wire 1 \ inst|8~0_combout $end
$var wire 1 ] inst|8~q $end
$var wire 1 ^ inst|9~0_combout $end
$var wire 1 _ inst|9~q $end
$var wire 1 ` inst|45~combout $end
$var wire 1 a inst10|6~0_combout $end
$var wire 1 b inst10|6~feeder_combout $end
$var wire 1 c inst10|8~0_combout $end
$var wire 1 d inst10|8~q $end
$var wire 1 e inst13~combout $end
$var wire 1 f inst10|6~q $end
$var wire 1 g inst10|7~0_combout $end
$var wire 1 h inst10|7~feeder_combout $end
$var wire 1 i inst10|7~q $end
$var wire 1 j inst12~combout $end
$var wire 1 k inst12~clkctrl_outclk $end
$var wire 1 l inst14|6~0_combout $end
$var wire 1 m inst14|6~feeder_combout $end
$var wire 1 n inst14|6~q $end
$var wire 1 o inst14|7~0_combout $end
$var wire 1 p inst14|7~q $end
$var wire 1 q inst14|8~0_combout $end
$var wire 1 r inst14|8~q $end
$var wire 1 s inst14|9~0_combout $end
$var wire 1 t inst14|9~q $end
$var wire 1 u inst14|45~combout $end
$var wire 1 v inst16|6~0_combout $end
$var wire 1 w inst16|6~feeder_combout $end
$var wire 1 x inst16|7~0_combout $end
$var wire 1 y inst16|7~feeder_combout $end
$var wire 1 z inst16|7~q $end
$var wire 1 { inst18~combout $end
$var wire 1 | inst16|6~q $end
$var wire 1 } inst16|8~0_combout $end
$var wire 1 ~ inst16|8~q $end
$var wire 1 !! inst17~combout $end
$var wire 1 "! inst17~clkctrl_outclk $end
$var wire 1 #! inst20|6~0_combout $end
$var wire 1 $! inst20|8~0_combout $end
$var wire 1 %! inst20|8~q $end
$var wire 1 &! inst20|9~0_combout $end
$var wire 1 '! inst20|9~q $end
$var wire 1 (! inst19|6~0_combout $end
$var wire 1 )! inst19|6~q $end
$var wire 1 *! inst19|50~0_combout $end
$var wire 1 +! inst19|8~0_combout $end
$var wire 1 ,! inst19|8~q $end
$var wire 1 -! inst19|13~0_combout $end
$var wire 1 .! inst19|9~q $end
$var wire 1 /! inst19|7~0_combout $end
$var wire 1 0! inst19|7~q $end
$var wire 1 1! inst21~combout $end
$var wire 1 2! inst20|6~q $end
$var wire 1 3! inst20|7~0_combout $end
$var wire 1 4! inst20|7~q $end
$var wire 1 5! inst24|sub|81~2_combout $end
$var wire 1 6! inst24|sub|81~0_combout $end
$var wire 1 7! inst24|sub|81~1_combout $end
$var wire 1 8! inst24|sub|81~3_combout $end
$var wire 1 9! inst22|sub|81~2_combout $end
$var wire 1 :! inst22|sub|81~0_combout $end
$var wire 1 ;! inst22|sub|81~1_combout $end
$var wire 1 <! inst22|sub|81~3_combout $end
$upscope $end
$upscope $end
$enddefinitions $end
#0
$dumpvars
0!
0"
0#
0$
0%
0&
0'
0(
0)
0*
1+
0,
0-
0.
0/
00
01
x2
03
14
x5
16
17
18
09
0:
0;
0<
0=
0>
0?
1@
0A
0B
0C
0D
0E
0F
0G
0H
1I
0J
0K
0L
0M
0N
0O
1P
0Q
0R
0S
0T
0U
0V
1W
1X
0Y
0Z
0[
0\
0]
0^
0_
1`
1a
1b
0c
0d
0e
0f
0g
0h
0i
1j
1k
1l
1m
0n
0o
0p
0q
0r
0s
0t
1u
1v
1w
0x
0y
0z
0{
0|
0}
0~
1!!
1"!
1#!
0$!
0%!
0&!
0'!
0(!
0)!
0*!
0+!
0,!
0-!
0.!
0/!
00!
01!
02!
03!
04!
05!
06!
07!
08!
09!
0:!
0;!
0<!
$end
#10000
1"
1H
02
1M
1N
0I
1Q
0P
1A
0@
1,
0+
#20000
0"
0H
12
#30000
1"
1H
02
1O
0M
1I
1R
0Q
1B
0A
1-
0,
#40000
1!
0"
1V
0H
12
1Y
1Z
0W
0X
#50000
1"
1H
02
1M
1:!
16!
0N
1J
0I
1S
0R
1C
0B
1.
0-
#60000
0"
0H
12
#70000
1"
1H
02
0O
0M
1K
17!
06!
1;!
1I
1T
0S
07!
1D
0C
1/
0.
#80000
0!
0"
0V
0H
12
#90000
1"
1H
02
1M
0;!
0:!
1N
0I
1U
0T
1E
0D
10
0/
#100000
0"
0H
12
#110000
1"
1H
02
1O
0M
1L
1I
0U
0E
00
0K
0O
0L
0J
1:!
0N
1P
1;!
1@
1+
1<!
1G
11
#120000
1!
0"
1V
0H
12
1[
0Y
16!
0:!
1W
17!
0;!
1X
18!
0<!
1F
0G
1*
01
#130000
1"
1H
02
1M
06!
1N
0I
1Q
0P
07!
1A
0@
1,
0+
08!
0F
0*
#140000
0"
0H
12
#150000
1"
1H
02
1O
0M
1I
1R
0Q
1B
0A
1-
0,
#160000
0!
0"
0V
0H
12
#170000
1"
1H
02
1M
1:!
16!
0N
1J
0I
1S
0R
1C
0B
1.
0-
#180000
0"
0H
12
#190000
1"
1H
02
0O
0M
1K
0:!
17!
1;!
1I
1T
0S
0;!
1D
0C
1/
0.
#200000
1!
0"
1V
0H
12
1Y
1:!
1\
0Z
0W
1;!
0X
#210000
1"
1H
02
1M
0;!
0:!
06!
1N
0I
1U
0T
07!
1E
0D
10
0/
#220000
0"
0H
12
#230000
1"
1H
02
1O
0M
1L
1I
0U
0E
00
0K
0O
0L
0J
1:!
16!
0N
1P
1;!
17!
1@
1+
1<!
18!
1G
1F
11
1*
#240000
0!
0"
0V
0H
12
#250000
1"
1H
02
1M
0;!
0:!
06!
1N
0I
1Q
0P
07!
1A
0@
1,
0+
0<!
0G
01
08!
0F
0*
#260000
0"
0H
12
#270000
1"
1H
02
1O
0M
1I
1R
0Q
1B
0A
1-
0,
#280000
1!
0"
1V
0H
12
1]
0[
0Y
1W
1X
#290000
1"
1H
02
1M
1:!
16!
0N
1J
0I
1S
0R
1C
0B
1.
0-
#300000
0"
0H
12
#310000
1"
1H
02
0O
0M
1K
0:!
17!
06!
1;!
1I
1T
0S
0;!
07!
1D
0C
1/
0.
#320000
0!
0"
0V
0H
12
#330000
1"
1H
02
1M
1N
0I
1U
0T
1E
0D
10
0/
#340000
0"
0H
12
#350000
1"
1H
02
1O
0M
1L
1I
0U
0E
00
0K
0O
0L
0J
0N
1P
1@
1+
#360000
1!
0"
1V
0H
12
1Y
1:!
1Z
0W
1;!
0X
1<!
1G
11
#370000
1"
1H
02
1M
0;!
0:!
1N
0I
1Q
0P
1A
0@
1,
0+
0<!
0G
01
#380000
0"
0H
12
#390000
1"
1H
02
1O
0M
1I
1R
0Q
1B
0A
1-
0,
#400000
0!
0"
0V
0H
12
#410000
1"
1H
02
1M
1:!
16!
0N
1J
0I
1S
0R
1C
0B
1.
0-
#420000
0"
0H
12
#430000
1"
1H
02
0O
0M
1K
17!
06!
1;!
1I
1T
0S
07!
1D
0C
1/
0.
#440000
1!
0"
1V
0H
12
1[
0Y
16!
0:!
1W
17!
0;!
1X
#450000
1"
1H
02
1M
06!
1N
0I
1U
0T
07!
1E
0D
10
0/
#460000
0"
0H
12
#470000
1"
1H
02
1O
0M
1L
1I
0U
0E
00
0K
0O
0L
0J
16!
0N
1P
17!
1@
1+
18!
1F
1*
#480000
0!
0"
0V
0H
12
#490000
1"
1H
02
1M
06!
1N
0I
1Q
0P
07!
1A
0@
1,
0+
08!
0F
0*
#500000
0"
0H
12
#510000
1"
1H
02
1O
0M
1I
1R
0Q
1B
0A
1-
0,
#520000
1!
0"
1V
0H
12
1Y
1^
0\
0Z
0W
0X
#530000
1"
1H
02
1M
1:!
16!
0N
1J
0I
1S
0R
1C
0B
1.
0-
#540000
0"
0H
12
#550000
1"
1H
02
0O
0M
1K
17!
1;!
1I
1T
0S
1D
0C
1/
0.
#560000
0!
0"
0V
0H
12
#570000
1"
1H
02
1M
0;!
0:!
06!
1N
0I
1U
0T
07!
1E
0D
10
0/
#580000
0"
0H
12
#590000
1"
1H
02
1O
0M
1L
1I
0U
0E
00
0K
0O
0L
0J
1:!
16!
0N
1P
1;!
17!
1@
1+
1<!
18!
1G
1F
11
1*
#600000
1!
0"
1V
0H
12
1_
0]
0[
0Y
06!
0:!
1W
07!
0;!
1X
08!
0<!
0F
0G
0*
01
#610000
1"
1H
02
1M
1N
0I
1Q
0P
1A
0@
1,
0+
#620000
0"
0H
12
#630000
1"
1H
02
1O
0M
1I
1R
0Q
1B
0A
1-
0,
#640000
0!
0"
0V
0H
12
#650000
1"
1H
02
1M
1:!
16!
0N
1J
0I
1S
0R
1C
0B
1.
0-
#660000
0"
0H
12
#670000
1"
1H
02
0O
0M
1K
0:!
17!
06!
1;!
1I
1T
0S
0;!
07!
1D
0C
1/
0.
#680000
1!
0"
1V
0H
12
1Y
1:!
0`
0^
0W
1;!
0X
#690000
1"
1H
02
1M
0;!
0:!
1N
0I
1U
0T
1E
0D
10
0/
#700000
0"
0H
12
#710000
1"
1H
02
1O
0M
1L
1I
0U
0E
00
0K
0O
0L
0J
1:!
0N
1P
1;!
1@
1+
1<!
1G
11
#720000
0!
0"
0V
0H
12
#730000
1"
1H
02
1M
0;!
0:!
1N
0I
1Q
0P
1A
0@
1,
0+
0<!
0G
01
#740000
0"
0H
12
#750000
1"
1H
02
1O
0M
1I
1R
0Q
1B
0A
1-
0,
#760000
1!
0"
1V
0H
12
0_
0Y
1`
1W
1X
1f
0j
1g
0a
0k
1h
0b
#770000
1"
1H
02
1M
1;!
1:!
16!
0N
1J
0I
1S
0R
0;!
1C
0B
1.
0-
1<!
1G
11
0<!
0G
01
#780000
0"
0H
12
#790000
1"
1H
02
0O
0M
1K
0:!
17!
06!
1;!
1I
1T
0S
0;!
07!
1D
0C
1/
0.
#800000
0!
0"
0V
0H
12
#810000
1"
1H
02
1M
1;!
1N
0I
1U
0T
1E
0D
10
0/
#820000
0"
0H
12
#830000
1"
1H
02
1O
0M
1L
0;!
1I
0U
0E
00
0K
0O
0L
0J
0N
1P
1@
1+
#840000
1!
0"
1V
0H
12
1Y
1:!
1Z
0W
1;!
0X
1<!
1G
11
#850000
1"
1H
02
1M
0;!
0:!
1N
0I
1Q
0P
1;!
1A
0@
1,
0+
0<!
0G
01
1<!
1G
11
#860000
0"
0H
12
#870000
1"
1H
02
1O
0M
0;!
1I
1R
0Q
1B
0A
1-
0,
0<!
0G
01
#880000
0!
0"
0V
0H
12
#890000
1"
1H
02
1M
1;!
1:!
16!
0N
1J
0I
1S
0R
0;!
1C
0B
1.
0-
1<!
1G
11
0<!
0G
01
#900000
0"
0H
12
#910000
1"
1H
02
0O
0M
1K
17!
06!
1;!
1I
1T
0S
07!
1D
0C
1/
0.
#920000
1!
0"
1V
0H
12
1[
0Y
16!
0:!
1W
17!
0;!
1X
#930000
1"
1H
02
1M
1;!
06!
1N
0I
1U
0T
07!
1E
0D
10
0/
#940000
0"
0H
12
#950000
1"
1H
02
1O
0M
1L
0;!
1I
0U
0E
00
0K
0O
0L
0J
16!
0N
1P
17!
1@
1+
18!
1F
1*
#960000
0!
0"
0V
0H
12
#970000
1"
1H
02
1M
1;!
06!
1N
0I
1Q
0P
07!
1A
0@
1,
0+
1<!
1G
11
08!
0F
0*
#980000
0"
0H
12
#990000
1"
1H
02
1O
0M
0;!
1I
1R
0Q
1B
0A
1-
0,
0<!
0G
01
